{
  "name": "HKT_DENIM_Rule8_DateRange",
  "description": "HKT_DENIM - Rule8: generate SAP report by date range (read from assets)",
  "main": "Main.xaml",
  "dependencies": {
    "DecryptPasswordActivities": "[1.0.1]",
    "UiPath.Database.Activities": "[1.2.6863.32528]",
    "UiPath.Excel.Activities": "[2.4.6863.30657]",
    "UiPath.Mail.Activities": "[1.2.6863.29868]",
    "UiPath.System.Activities": "[18.3.6877.28276]",
    "UiPath.UIAutomation.Activities": "[18.3.6877.28298]",
    "UiPathTeam.Encryption.Activities": "[1.0.4]"
  },
  "webServices": [],
  "schemaVersion": "4.0",
  "studioVersion": "20.2.0.108",
  "projectVersion": "1.0.0.2",
  "runtimeOptions": {
    "autoDispose": false,
    "isPausable": true,
    "requiresUserInteraction": true,
    "supportsPersistence": false,
    "excludedLoggedData": [
      "Private:*",
      "*password*"
    ],
    "executionType": "Workflow"
  },
  "designOptions": {
    "projectProfile": "Developement",
    "outputType": "Process",
    "libraryOptions": {
      "includeOriginalXaml": false,
      "privateWorkflows": []
    },
    "fileInfos": []
  },
  "arguments": {
    "input": [],
    "output": []
  },
  "expressionLanguage": "VisualBasic"
}